{"results":[{"vote_count":1998,"id":335983,"video":false,"vote_average":6.6,"title":"Venom","popularity":298.863,"poster_path":"\/2uNW4WbgBXL25BAbXGLnLqX71Sw.jpg","original_language":"en","original_title":"Venom","genre_ids":[878],"backdrop_path":"\/VuukZLgaCrho2Ar8Scl9HtV3yD.jpg","adult":false,"overview":"When Eddie Brock acquires the powers of a symbiote, he will have to release his alter-ego \"Venom\" to save his life.","release_date":"2018-10-03"},{"vote_count":461,"id":424694,"video":false,"vote_average":8.3,"title":"Bohemian Rhapsody","popularity":251.899,"poster_path":"\/lHu1wtNaczFPGFDTrjCSzeLPTKN.jpg","original_language":"en","original_title":"Bohemian Rhapsody","genre_ids":[18,10402],"backdrop_path":"\/pbXgLEYh8rlG2Km5IGZPnhcnuSz.jpg","adult":false,"overview":"Singer Freddie Mercury, guitarist Brian May, drummer Roger Taylor and bass guitarist John Deacon take the music world by storm when they form the rock 'n' roll band Queen in 1970. Hit songs become instant classics. When Mercury's increasingly wild lifestyle starts to spiral out of control, Queen soon faces its greatest challenge yet – finding a way to keep the band together amid the success and excess.","release_date":"2018-10-24"},{"vote_count":674,"id":424139,"video":false,"vote_average":6.5,"title":"Halloween","popularity":176.299,"poster_path":"\/bXs0zkv2iGVViZEy78teg2ycDBm.jpg","original_language":"en","original_title":"Halloween","genre_ids":[27,53],"backdrop_path":"\/tZ358Wk4BnOc4FjdGsiexAUvCMH.jpg","adult":false,"overview":"Laurie Strode comes to her final confrontation with Michael Myers, the masked figure who has haunted her since she narrowly escaped his killing spree on Halloween night four decades ago.","release_date":"2018-10-18"},{"vote_count":3420,"id":260513,"video":false,"vote_average":7.6,"title":"Incredibles 2","popularity":169.243,"poster_path":"\/x1txcDXkcM65gl7w20PwYSxAYah.jpg","original_language":"en","original_title":"Incredibles 2","genre_ids":[28,12,16,10751],"backdrop_path":"\/mabuNsGJgRuCTuGqjFkWe1xdu19.jpg","adult":false,"overview":"Elastigirl springs into action to save the day, while Mr. Incredible faces his greatest challenge yet – taking care of the problems of his three children.","release_date":"2018-06-14"},{"vote_count":42,"id":399402,"video":false,"vote_average":5.9,"title":"Hunter Killer","popularity":121.95,"poster_path":"\/t7ZpEIxMnxaljIeor3XB1PUX4lm.jpg","original_language":"en","original_title":"Hunter Killer","genre_ids":[28,53],"backdrop_path":"\/gCIB3DdK00DyfwosVGf7pnFFdK3.jpg","adult":false,"overview":"An untested American submarine captain teams with U.S. Navy Seals to rescue the Russian president, who has been kidnapped by a rogue general.","release_date":"2018-10-19"},{"vote_count":1407,"id":332562,"video":false,"vote_average":7.5,"title":"A Star Is Born","popularity":111.522,"poster_path":"\/wrFpXMNBRj2PBiN4Z5kix51XaIZ.jpg","original_language":"en","original_title":"A Star Is Born","genre_ids":[18,10402,10749],"backdrop_path":"\/840rbblaLc4SVxm8gF3DNdJ0YAE.jpg","adult":false,"overview":"Seasoned musician Jackson Maine discovers—and falls in love with—struggling artist Ally. She has just about given up on her dream to make it big as a singer—until Jack coaxes her into the spotlight. But even as Ally's career takes off, the personal side of their relationship is breaking down, as Jack fights an ongoing battle with his own internal demons.","release_date":"2018-10-03"},{"vote_count":159,"id":454293,"video":false,"vote_average":6.4,"title":"Night School","popularity":110.758,"poster_path":"\/1NSMAaBPSbWv7sGmF8oLGMNb8Qm.jpg","original_language":"en","original_title":"Night School","genre_ids":[35],"backdrop_path":"\/jJBimY3DXIaIaL4NeGHfR0U0rSh.jpg","adult":false,"overview":"Teddy Walker is a successful salesman whose life takes an unexpected turn when he accidentally blows up his place of employment. Forced to attend night school to get his GED, Teddy soon finds himself dealing with a group of misfit students, his former high school nemesis and a feisty teacher who doesn't think he's too bright.","release_date":"2018-09-27"},{"vote_count":1365,"id":439079,"video":false,"vote_average":5.8,"title":"The Nun","popularity":101.962,"poster_path":"\/sFC1ElvoKGdHJIWRpNB3xWJ9lJA.jpg","original_language":"en","original_title":"The Nun","genre_ids":[27,9648,53],"backdrop_path":"\/fgsHxz21B27hOOqQBiw9L6yWcM7.jpg","adult":false,"overview":"When a young nun at a cloistered abbey in Romania takes her own life, a priest with a haunted past and a novitiate on the threshold of her final vows are sent by the Vatican to investigate. Together they uncover the order’s unholy secret. Risking not only their lives but their faith and their very souls, they confront a malevolent force in the form of the same demonic nun that first terrorized audiences in “The Conjuring 2” as the abbey becomes a horrific battleground between the living and the damned.","release_date":"2018-09-05"},{"vote_count":22,"id":523873,"video":false,"vote_average":4.1,"title":"Kung Fu League","popularity":97.934,"poster_path":"\/rW0A73hjzPWVwADlCTLnjLhAFLX.jpg","original_language":"zh","original_title":"功夫联盟","genre_ids":[28,35],"backdrop_path":null,"adult":false,"overview":"Martial arts comedy following a group of kung fu legends banding together to take on the bad guys. The legends includes VINCENT ZHAO reprising his role as ‘Wong Fei Hung’ with DENNIS TO once again portraying ‘Wing Chun’ master ‘Ip Man’, DANNY CHAN KWOK KWAN as ‘Chen Zhen’ and ANDY ON as master ‘Huo Yuan Jia’.","release_date":"2018-10-19"},{"vote_count":106,"id":426543,"video":false,"vote_average":6.1,"title":"The Nutcracker and the Four Realms","popularity":88.852,"poster_path":"\/OphaHihfuXhUGmpNIRIsO3oMgm.jpg","original_language":"en","original_title":"The Nutcracker and the Four Realms","genre_ids":[14,12,10751],"backdrop_path":"\/l2ji4YiNSPBV69WjGBgU0gCvRqy.jpg","adult":false,"overview":"A young girl is transported into a magical world of gingerbread soldiers and an army of mice.","release_date":"2018-10-26"},{"vote_count":730,"id":346910,"video":false,"vote_average":5.3,"title":"The Predator","popularity":88.6,"poster_path":"\/wMq9kQXTeQCHUZOG4fAe5cAxyUA.jpg","original_language":"en","original_title":"The Predator","genre_ids":[27,878,28,53],"backdrop_path":"\/f4E0ocYeToEuXvczZv6QArrMDJ.jpg","adult":false,"overview":"From the outer reaches of space to the small-town streets of suburbia, the hunt comes home. Now, the universe’s most lethal hunters are stronger, smarter and deadlier than ever before, having genetically upgraded themselves with DNA from other species. When a young boy accidentally triggers their return to Earth, only a ragtag crew of ex-soldiers and a disgruntled science teacher can prevent the end of the human race.","release_date":"2018-09-13"},{"vote_count":869,"id":487558,"video":false,"vote_average":7.4,"title":"BlacKkKlansman","popularity":81.274,"poster_path":"\/bT5WuAsjDJYQv2vXbWGDQTmjKav.jpg","original_language":"en","original_title":"BlacKkKlansman","genre_ids":[80,18,35],"backdrop_path":"\/gMVdhfQ7q9DFHhDkehrququjGPd.jpg","adult":false,"overview":"Ron Stallworth, an African-American police officer from Colorado, successfully manages to infiltrate the local Ku Klux Klan and become the head of the local chapter.","release_date":"2018-07-30"},{"vote_count":449,"id":399360,"video":false,"vote_average":5.5,"title":"Alpha","popularity":77.856,"poster_path":"\/afdZAIcAQscziqVtsEoh2PwsYTW.jpg","original_language":"en","original_title":"Alpha","genre_ids":[12,18],"backdrop_path":"\/nKMeTdm72LQ756Eq20uTjF1zDXu.jpg","adult":false,"overview":"After a hunting expedition goes awry, a young caveman struggles against the elements to find his way home.","release_date":"2018-08-17"},{"vote_count":558,"id":369972,"video":false,"vote_average":7.2,"title":"First Man","popularity":72.905,"poster_path":"\/i91mfvFcPPlaegcbOyjGgiWfZzh.jpg","original_language":"en","original_title":"First Man","genre_ids":[36,18],"backdrop_path":"\/z1FkoHO7bz40S4JiptWHSYoPpxq.jpg","adult":false,"overview":"A look at the life of the astronaut, Neil Armstrong, and the legendary space mission that led him to become the first man to walk on the Moon on July 20, 1969.","release_date":"2018-10-11"},{"vote_count":312,"id":463272,"video":false,"vote_average":6.2,"title":"Johnny English Strikes Again","popularity":68.018,"poster_path":"\/tCBxnZwLiY1BOKw3tH6AxHZdqPh.jpg","original_language":"en","original_title":"Johnny English Strikes Again","genre_ids":[12,10751,28,35],"backdrop_path":"\/yCOLqh5MOGyYdo58Ap0aWvKop9h.jpg","adult":false,"overview":"Disaster strikes when a criminal mastermind reveals the identities of all active undercover agents in Britain. The secret service can now rely on only one man - Johnny English. Currently teaching at a minor prep school, Johnny springs back into action to find the mysterious hacker. For this mission to succeed, he’ll need all of his skills - what few he has - as the man with yesterday’s analogue methods faces off against tomorrow’s digital technology.","release_date":"2018-09-13"},{"vote_count":92,"id":442062,"video":false,"vote_average":5.9,"title":"Goosebumps 2: Haunted Halloween","popularity":65.672,"poster_path":"\/8bcpki9GfXdXj9esFpPtlate8v0.jpg","original_language":"en","original_title":"Goosebumps 2: Haunted Halloween","genre_ids":[12,35,14,27,10751],"backdrop_path":"\/9xYg9ScjGaO2HrLfOfYZirTrB3o.jpg","adult":false,"overview":"Two boys face an onslaught from witches, monsters, ghouls and a talking dummy after they discover a mysterious book by author R. L. Stine.","release_date":"2018-10-11"},{"vote_count":123,"id":438590,"video":false,"vote_average":5.3,"title":"A-X-L","popularity":64.998,"poster_path":"\/9kB56ZdMB6RgY5QtX9Bar45jCeI.jpg","original_language":"en","original_title":"A-X-L","genre_ids":[878,28,12,10751],"backdrop_path":"\/l1nYo0yzKjf84atnBDbx0do16vQ.jpg","adult":false,"overview":"The life of a teenage boy is forever altered by a chance encounter with cutting edge military technology.","release_date":"2018-08-16"},{"vote_count":39,"id":470044,"video":false,"vote_average":7.6,"title":"The Hate U Give","popularity":56.267,"poster_path":"\/iBsFdg6dN0W1kzZgc6lTj74KTQk.jpg","original_language":"en","original_title":"The Hate U Give","genre_ids":[18,80],"backdrop_path":"\/kH8xW7K2Gp1KOXoeewcLPkfqZ8K.jpg","adult":false,"overview":"Raised in a poverty-stricken slum, a 16-year-old girl named Starr now attends a suburban prep school. After she witnesses a police officer shoot her unarmed best friend, she's torn between her two very different worlds as she tries to speak her truth.","release_date":"2018-10-19"},{"vote_count":274,"id":347375,"video":false,"vote_average":5.8,"title":"Mile 22","popularity":55.774,"poster_path":"\/2L8ehd95eSW9x7KINYtZmRkAlrZ.jpg","original_language":"en","original_title":"Mile 22","genre_ids":[28,53,12,80],"backdrop_path":"\/A2rIVEV2jOzb4smx8hby1u9UwAm.jpg","adult":false,"overview":"An elite group of American operatives, aided by a top-secret tactical command team, must transport an asset who holds life-threatening information to an extraction point 22 miles away through the hostile streets of an Asian city.","release_date":"2018-08-16"},{"vote_count":177,"id":433498,"video":false,"vote_average":7.5,"title":"Papillon","popularity":54.126,"poster_path":"\/ahF5c6vyP8HWMqIwlhecbRALkjq.jpg","original_language":"en","original_title":"Papillon","genre_ids":[18,80,9648,53],"backdrop_path":"\/ims2v8C99dEAo2CUydueb54T9ai.jpg","adult":false,"overview":"Henri \"Papillon\" Charrière is convicted in Paris for a murder he did not commit. Sentenced to life imprisonment in the penal colony of French Guiana, he becomes obsessed with escaping. After planning and executing a series of treacherous yet failed attempts, he's sent to the notorious prison Devil's Island, a place from which no one has ever escaped.","release_date":"2018-07-26"}],"page":1,"total_results":1165,"dates":{"maximum":"2018-11-05","minimum":"2018-09-18"},"total_pages":59}
